286778 285637
32105 6112
33139 842533
993697 643314
637812 398240
420625 203385
211541 19798
640795 697754
473908 879056
774040 595253
886704 824159
669777 582200
959622 790912
369399 860806
40936 941220
987631 972062
997400 808330
362275 192531
913624 550195
217513 779060
789690 483637
757718 717770
536227 180090
464804 848790
528981 187648
475680 422239
571709 755477
717425 842880
427049 314226
555269 236219
449591 687370
53053 402270
818133 381708
72995 590019
492277 570918
939864 109527
939587 314797
173918 343796
947164 702558
780916 584166
692653 550596
205278 244701
527103 376746
459777 464358
766398 865857
907775 357176
298763 184052
179738 252355
603421 943590
34518 553853
54659 123925
243150 971350
656244 951808
266874 728667
254003 408307
645873 289600
896042 41610
365446 921568
573574 43618
572488 887995
335228 678255
130243 40184
786589 426836
599658 264099
439738 193363
462234 429244
204645 393665
615402 817143
798031 351815
644509 27560
829985 890262
586572 593952
568413 508966
638701 85650
552487 382184
272455 126632
422134 956819
568671 605588
798838 165171
748232 440994
5838 119447
993864 158751
503347 458462
144319 383663
848878 758627
900714 698493
792828 62806
236329 311036
295022 173414
355444 862860
483903 28389
590643 30842
35144 228681
401077 826467
973697 458466
103976 888174
365803 938288
619181 953325
11405 411383
123317 486311
17931 310153
394505 117315
247554 351177
432614 448810
776777 585892
581630 793854
39601 970728
751803 575908
609362 899640
853796 147234
538280 41277
511472 122910
839013 177395
296355 152911
790711 907738
424713 552339
844147 5430
187825 672397
801265 94877
540479 234814
11814 107528
438063 263996
681434 952153
967479 512118
881173 175751
367107 372364
520212 655218
767794 236544
205433 560500
730567 775905
465492 627902
895112 569643
308110 597550
654881 505090
572288 47974
308467 872532
916023 357986
653774 57733
417755 182315
291850 577111
812916 964960
852508 255063
751896 278259
720081 316570
278805 674857
615823 86479
965574 943432
526143 146175
594736 100175
600574 890383
974241 312741
638176 962843
316475 746040
515053 465301
819669 397593
656463 166825
766597 558103
663459 807987
483164 650333
551531 255205
40491 16432
21555 857739
116470 57768
473787 165933
129986 743966
184278 933239
66753 820385
494019 694338
524549 565378
986225 38755
710774 836769
702298 447010
999969 182453
558342 406326
605826 340498
413051 730841
97854 485012
188150 744987
624890 331934
244598 933893
509180 493851
431839 53894
223425 695550
190506 786462
236271 259295
917899 872354
261678 540511
949532 891688
667316 754380
407246 802557
521763 574429
525234 959446
824973 542939
166269 872155
260640 957966
450022 43621
664369 136070
565912 664494
555603 939169
546547 811561
935909 435635
890325 440415
615975 999152
437335 734600
957430 646816
515367 568901
44783 511532
767884 275085
693142 252631
323755 508111
932032 241064
983269 659626
430900 866284
617237 995348
364560 363316
814429 694586
234342 733908
104541 965998
282196 500625
568771 785133
511532 930906
416506 278904
442682 328345
104727 119048
732381 395981
844518 417249
668893 563810
600757 837202
528078 714494
570482 531223
382309 492889
419126 693258
932737 376306
209393 899429
894057 744321
64170 518569
336023 922250
563787 666203
304947 494504
