212784 804757 509
149276 281910 443
129020 817694 509
584118 260390 470
516262 105367 470
178497 432390 449
270841 68842 443
950255 421610 525
748932 589982 509
120391 549696 470
449897 665204 509
19135 429670 449
705123 864886 525
708270 364278 509
480198 915431 525
448670 103783 449
241507 173793 443
149223 990754 525
410778 176146 449
555220 103172 470
740977 313707 509
283646 194311 443
581061 912244 525
598427 350917 470
597342 964336 525
879664 241490 525
953774 590766 525
697341 814468 504
145065 762513 509
809462 216334 509
710860 128996 509
425087 774387 509
603848 955839 525
362733 472573 449
122619 990984 525
417324 788320 509
638765 621273 509
657121 397333 509
316304 726922 509
300642 376889 441
648336 872666 525
502860 46326 449
13683 626583 509
233599 809425 509
884278 558371 525
765722 870130 525
728626 58605 509
169564 135504 383
288180 281591 376
922377 331849 525
952874 834835 525
17385 932134 525
666927 384791 509
209784 955488 525
708750 388925 509
743624 310153 509
537940 115730 470
302284 199664 443
481872 94977 449
747480 331353 509
555446 545879 452
174020 357216 443
201930 74742 383
460861 892036 525
437813 845175 525
471100 154283 449
1150 441720 449
870664 723093 525
334846 960256 525
555570 486088 470
513382 194512 470
466214 556098 470
855645 775677 525
125445 893767 525
163196 499353 449
421672 127076 449
192288 378147 443
792714 492463 509
698023 942704 525
21743 294008 443
920748 5506 525
214570 400103 443
311744 37828 443
901218 227283 525
900977 52296 525
865219 866785 388
751494 996031 525
200489 113422 383
634506 693764 442
997408 111200 525
141520 303826 443
717813 247082 509
604064 487698 470
479836 344078 449
155034 469167 449
610465 747920 509
540572 470386 470
37500 976843 525
311842 779627 509
557383 713905 509
445212 106076 449
603875 142001 470
320632 778702 509
985976 766386 525
829582 35958 509
708121 884533 525
405427 19673 443
678047 376336 509
665717 361136 509
826515 875848 525
601330 151116 470
708736 524191 509
35854 483045 449
31228 880712 525
37192 976320 525
60171 903658 525
792262 143115 509
172703 249827 443
362426 273368 441
807711 766681 468
834056 204762 509
498590 632133 509
296265 31858 443
833024 143972 509
420356 517258 470
641910 104404 509
339633 935652 525
54136 714970 509
951036 140666 525
861987 105161 525
796158 666374 504
786778 697761 504
786167 91856 509
920322 867466 476
1323 308456 443
653854 11043 509
949584 145172 525
281438 440759 449
575025 449500 470
620699 617292 372
131100 472659 449
867195 149524 525
983710 868902 507
859745 279325 525
434818 170749 449
58855 759003 509
109128 132850 349
435744 379148 449
726813 848004 525
63930 775798 509
986521 475194 525
562654 7861 470
967968 742813 525
392366 586831 470
715219 743668 424
847049 591138 525
489209 491218 351
856012 110737 525
109603 494444 449
575585 64352 470
328644 779805 509
821481 793217 468
215672 653025 509
172141 575436 470
223239 717008 509
605930 89195 470
239870 539008 470
875888 86675 525
423134 752632 509
120781 19388 354
16720 300560 443
789069 827599 468
524127 642412 509
192913 151705 383
959298 491369 525
282074 490555 449
154350 205463 383
68244 300951 443
772074 749635 468
413613 353580 449
93589 265546 443
463445 254932 449
654148 738966 504
772244 642808 504
919242 7150 525
972781 119653 525
249746 860863 525
91459 869596 525
927271 429468 525
663571 553246 509
524706 388650 470
816675 130424 509
694659 908299 525
478825 185419 449
813648 161872 509
829580 846789 525
431155 637303 509
594781 262173 470
291868 40032 443
859364 760021 525
534092 624065 452
835624 385675 509
840602 263430 525
873092 642383 525
178365 952483 525
55482 972676 525
117242 601821 470
927720 981905 507
653599 622400 509
979089 945404 458
374963 498734 449
581342 226313 470
478889 758596 509
496422 947226 525
801430 699345 504
752210 54389 509
454209 456418 338
272138 107622 443
353821 3217 443
220423 314897 443
193106 164584 365
257694 109184 443
248830 630432 509
706192 482460 509
237993 805628 509
57358 751192 509
830783 574664 509
137449 202154 383
263412 813599 509
133658 987356 525
527344 88434 470
98476 398759 443
991029 183447 525
960373 508023 525
950637 532215 525
889154 510722 525
370911 24442 443
49967 590776 470
742499 138952 509
792710 404792 509
689216 28341 509
701144 120589 509
79869 564278 470
656262 461042 509
690830 376036 509
779107 487616 509
657167 903084 525
789392 275911 509
29452 870824 525
342295 408932 441
663258 178786 509
476017 222081 449
698595 518211 509
426492 836124 509
899052 40333 525
331103 678444 509
895397 851182 445
386179 377319 379
10092 151317 375
