327942 624574
932244 455726
672114 244222
296183 722101
217802 199064
685172 12720
576618 393063
628828 453675
683414 28247
480088 680302
37565 585051
785073 849896
80514 412941
750859 710855
169277 330182
159942 136619
640221 285460
339172 173922
679305 757603
728362 390529
532025 44779
355702 166350
587552 62390
575464 93686
911297 469157
970007 393699
739160 718679
876821 836965
755244 752423
325015 954825
713055 84022
576974 768629
984235 610360
377457 416385
723445 338755
95972 544854
344769 454919
892360 157460
747508 282053
870330 901200
179814 685077
482664 716617
98142 904520
705266 657910
152013 609
229634 849625
405630 904005
742102 361828
8209 155673
94360 606829
510958 580431
103187 910525
237181 379772
284263 821831
49964 497320
838075 539596
900724 561343
468172 285557
607974 246189
244981 175360
142881 811753
708268 67436
186724 675138
523406 740748
522666 664524
35407 536036
411931 253170
948462 416913
488678 327942
686675 807925
22248 412401
933776 509300
394772 362902
625159 430257
599181 798713
490503 466015
856311 781723
644365 344028
806105 607309
454283 949487
51315 17191
819744 29920
459741 855023
976486 577758
999780 39292
123279 679187
601114 93498
873120 563682
739647 202883
848941 383619
986847 956895
772309 598295
16149 357897
579549 334928
804639 491771
366209 299840
217681 453221
249048 175191
260133 901781
491430 361771
130417 471109
29074 339931
684650 897287
828602 799059
283513 423500
581818 945633
676890 517088
103634 527573
246589 81285
136793 917386
98592 448463
189051 712295
784909 541577
501715 585043
346569 454105
338082 875602
468482 758183
533079 297911
282066 23876
535348 325305
336007 776381
555715 501369
157054 667491
653596 130494
392454 644192
20930 212527
691763 789233
252988 563693
446710 649087
33772 254506
566793 516046
513681 897069
268642 979777
210240 412927
770995 157356
186882 928013
879680 502996
948928 725590
53221 410677
923970 300712
96404 610411
404631 779530
807349 202574
881189 432122
383795 619894
790880 168270
540057 176969
654630 522809
321829 906073
682402 543362
634410 725935
2393 442453
885717 153685
21734 174116
630453 565343
36689 276977
511969 206435
761258 770591
410613 68700
812580 198693
61316 767047
535994 352928
949806 822816
278022 40187
804535 751055
282983 540247
845836 890648
948965 961486
545293 458038
789980 851276
956353 987733
727627 727919
126656 780498
578133 271291
830293 798625
444773 914501
995847 65184
12623 267406
497883 832765
28946 767544
550522 344205
11321 653829
220129 350802
341622 53457
177590 742765
182996 610852
624984 659932
101677 699625
6248 84627
540128 61258
953070 329833
726709 451717
383863 304722
130335 928218
670566 862639
112979 280837
172195 41944
503720 975477
269160 332245
107864 913404
918919 121174
330429 559809
253398 372585
731461 561823
612459 46282
118819 898922
523851 170449
438825 199961
982067 857835
897311 926532
33961 639322
690030 521941
973157 83648
719635 298426
246731 57104
985609 622635
829250 308519
177629 240850
137466 168254
158699 411458
70092 451910
331233 969435
283487 463227
421154 329765
177193 191196
700959 24950
517470 40848
953382 174654
119916 253537
961259 85629
214895 637989
677121 933190
436659 608934
957869 430897
463948 672015
779653 774639
791828 917722
334163 581791
279153 823990
121456 277978
195536 923041
617297 782801
920929 923262
61510 210289
492171 756996
957582 144778
970089 343914
464138 129112
768506 901889
566213 130964
515777 757121
502773 892166
331594 271873
334686 670669
585424 754799
160064 272138
428592 51058
130303 668227
368501 641632
545249 249383
654621 731420
